{
  "cwd": "/home/timothee/Documents/FaceBoule/frontend",
  "type": [
    "capacitor"
  ],
  "name": "FaceBoule",
  "framework": "react",
  "template": "single-view",
  "bundler": "vite",
  "cssPreProcessor": false,
  "theming": {
    "customColor": false,
    "color": "#007aff",
    "darkTheme": false,
    "iconFonts": true,
    "fillBars": false
  },
  "customBuild": false,
  "pkg": "io.framework7.myapp",
  "capacitor": {
    "platforms": [
      "ios",
      "android"
    ]
  }
}